# all_but works

    Code
      all_but(1:10, c(2, 3), 11, 5)
    Output
      [1]  1  4  6  7  8  9 10

# subset_types works

    Code
      subset_types(default_parsing(mtcars), "continuous")
    Output
      # A tibble: 32 x 6
           mpg  disp    hp  drat    wt  qsec
         <dbl> <dbl> <dbl> <dbl> <dbl> <dbl>
       1  21    160    110  3.9   2.62  16.5
       2  21    160    110  3.9   2.88  17.0
       3  22.8  108     93  3.85  2.32  18.6
       4  21.4  258    110  3.08  3.22  19.4
       5  18.7  360    175  3.15  3.44  17.0
       6  18.1  225    105  2.76  3.46  20.2
       7  14.3  360    245  3.21  3.57  15.8
       8  24.4  147.    62  3.69  3.19  20  
       9  22.8  141.    95  3.92  3.15  22.9
      10  19.2  168.   123  3.92  3.44  18.3
      # i 22 more rows

---

    Code
      subset_types(default_parsing(mtcars), c("dichotomous", "ordinal", "categorical"))
    Output
      # A tibble: 32 x 5
         cyl   vs    am    gear  carb 
         <fct> <lgl> <lgl> <fct> <fct>
       1 6     FALSE TRUE  4     4    
       2 6     FALSE TRUE  4     4    
       3 4     TRUE  TRUE  4     1    
       4 6     TRUE  FALSE 3     1    
       5 8     FALSE FALSE 3     2    
       6 6     TRUE  FALSE 3     1    
       7 8     FALSE FALSE 3     4    
       8 4     TRUE  FALSE 4     2    
       9 4     TRUE  FALSE 4     2    
      10 6     TRUE  FALSE 4     4    
      # i 22 more rows
…
