…
# default_parsing works

    Code
      default_parsing(mtcars)
    Output
      # A tibble: 32 x 11
           mpg cyl    disp    hp  drat    wt  qsec vs    am    gear  carb 
         <dbl> <fct> <dbl> <dbl> <dbl> <dbl> <dbl> <lgl> <lgl> <fct> <fct>
       1  21   6      160    110  3.9   2.62  16.5 FALSE TRUE  4     4    
       2  21   6      160    110  3.9   2.88  17.0 FALSE TRUE  4     4    
       3  22.8 4      108     93  3.85  2.32  18.6 TRUE  TRUE  4     1    
       4  21.4 6      258    110  3.08  3.22  19.4 TRUE  FALSE 3     1    
       5  18.7 8      360    175  3.15  3.44  17.0 FALSE FALSE 3     2    
       6  18.1 6      225    105  2.76  3.46  20.2 TRUE  FALSE 3     1    
       7  14.3 8      360    245  3.21  3.57  15.8 FALSE FALSE 3     4    
       8  24.4 4      147.    62  3.69  3.19  20   TRUE  FALSE 4     2    
       9  22.8 4      141.    95  3.92  3.15  22.9 TRUE  FALSE 4     2    
      10  19.2 6      168.   123  3.92  3.44  18.3 TRUE  FALSE 4     4    
      # i 22 more rows
…
      $gear
       [1] 4 4 4 3 3 3 3 4 4 4 4 3 3 3 3 3 3 4 4 4 3 3 3 3 3 4 5 5 5 5 5 4
      
      $carb
       [1] 4 4 1 1 2 1 4 2 2 4 4 3 3 3 4 4 4 1 2 1 1 2 2 4 2 1 2 2 4 6 8 2
      

---

    Code
      remove_empty_attr(dplyr::bind_cols(ds))
    Output
      # A tibble: 32 x 11
           mpg   cyl  disp    hp  drat    wt  qsec    vs    am  gear  carb
         <dbl> <dbl> <dbl> <dbl> <dbl> <dbl> <dbl> <dbl> <dbl> <dbl> <dbl>
       1  21       6  160    110  3.9   2.62  16.5     0     1     4     4
       2  21       6  160    110  3.9   2.88  17.0     0     1     4     4
       3  22.8     4  108     93  3.85  2.32  18.6     1     1     4     1
       4  21.4     6  258    110  3.08  3.22  19.4     1     0     3     1
       5  18.7     8  360    175  3.15  3.44  17.0     0     0     3     2
       6  18.1     6  225    105  2.76  3.46  20.2     1     0     3     1
       7  14.3     8  360    245  3.21  3.57  15.8     0     0     3     4
       8  24.4     4  147.    62  3.69  3.19  20       1     0     4     2
       9  22.8     4  141.    95  3.92  3.15  22.9     1     0     4     2
      10  19.2     6  168.   123  3.92  3.44  18.3     1     0     4     4
      # i 22 more rows
…
# data_description works

    Code
      data_description(data.frame(sample(1:8, 20, TRUE), sample(c(1:8, NA), 20, TRUE)),
      data_text = "This data")
    Output
      [1] "This data has 20 observations and 2 variables, with 16 (80%) complete cases."

# Data type filter works

    Code
      data_type_filter(default_parsing(mtcars), type = c("categorical", "continuous"))
    Output
      # A tibble: 32 x 9
           mpg cyl    disp    hp  drat    wt  qsec gear  carb 
         <dbl> <fct> <dbl> <dbl> <dbl> <dbl> <dbl> <fct> <fct>
       1  21   6      160    110  3.9   2.62  16.5 4     4    
       2  21   6      160    110  3.9   2.88  17.0 4     4    
       3  22.8 4      108     93  3.85  2.32  18.6 4     1    
       4  21.4 6      258    110  3.08  3.22  19.4 3     1    
       5  18.7 8      360    175  3.15  3.44  17.0 3     2    
       6  18.1 6      225    105  2.76  3.46  20.2 3     1    
       7  14.3 8      360    245  3.21  3.57  15.8 3     4    
       8  24.4 4      147.    62  3.69  3.19  20   4     2    
       9  22.8 4      141.    95  3.92  3.15  22.9 4     2    
      10  19.2 6      168.   123  3.92  3.44  18.3 4     4    
      # i 22 more rows

---

    Code
      data_type_filter(default_parsing(mtcars), type = NULL)
    Output
      # A tibble: 32 x 11
           mpg cyl    disp    hp  drat    wt  qsec vs    am    gear  carb 
         <dbl> <fct> <dbl> <dbl> <dbl> <dbl> <dbl> <lgl> <lgl> <fct> <fct>
       1  21   6      160    110  3.9   2.62  16.5 FALSE TRUE  4     4    
       2  21   6      160    110  3.9   2.88  17.0 FALSE TRUE  4     4    
       3  22.8 4      108     93  3.85  2.32  18.6 TRUE  TRUE  4     1    
       4  21.4 6      258    110  3.08  3.22  19.4 TRUE  FALSE 3     1    
       5  18.7 8      360    175  3.15  3.44  17.0 FALSE FALSE 3     2    
       6  18.1 6      225    105  2.76  3.46  20.2 TRUE  FALSE 3     1    
       7  14.3 8      360    245  3.21  3.57  15.8 FALSE FALSE 3     4    
       8  24.4 4      147.    62  3.69  3.19  20   TRUE  FALSE 4     2    
       9  22.8 4      141.    95  3.92  3.15  22.9 TRUE  FALSE 4     2    
      10  19.2 6      168.   123  3.92  3.44  18.3 TRUE  FALSE 4     4    
      # i 22 more rows
…
# set_column_label works

    Code
      set_column_label(set_column_label(set_column_label(mtcars, ls), ls2), ls3)
    Output
      # A tibble: 32 x 11
           mpg   cyl  disp    hp  drat    wt  qsec    vs    am  gear  carb
         <dbl> <dbl> <dbl> <dbl> <dbl> <dbl> <dbl> <dbl> <dbl> <dbl> <dbl>
       1  21       6  160    110  3.9   2.62  16.5     0     1     4     4
       2  21       6  160    110  3.9   2.88  17.0     0     1     4     4
       3  22.8     4  108     93  3.85  2.32  18.6     1     1     4     1
       4  21.4     6  258    110  3.08  3.22  19.4     1     0     3     1
       5  18.7     8  360    175  3.15  3.44  17.0     0     0     3     2
       6  18.1     6  225    105  2.76  3.46  20.2     1     0     3     1
       7  14.3     8  360    245  3.21  3.57  15.8     0     0     3     4
       8  24.4     4  147.    62  3.69  3.19  20       1     0     4     2
       9  22.8     4  141.    95  3.92  3.15  22.9     1     0     4     2
      10  19.2     6  168.   123  3.92  3.44  18.3     1     0     4     4
      # i 22 more rows
…
